%!PS-Adobe-3.0
%%Creator: gEDA gschem 1.8.1-20121123-13-g875406c
%%CreationDate: Wed Jan 22 11:34:57 2020
%%Title: /home/frblum/Shared/Studium/SEB6/EmbeddedSys/fingersound_circuit.sch
%%Author: frblum
%%BoundingBox: 0 0 612 792
%%Orientation: Landscape
%%Pages: 1
%%EndComments
%%BeginProlog
% Prolog for gEDA, define all the functions needed for rendering
% schematics on Postscript devices


% Draw a line from the second coordinate to the first
% x2 y2 x1 y1 width line -
/line {
    setlinewidth
    % pop off first element and moveto
    moveto
    % pop off remaining elements and draw a line segment
    lineto
    % draw it
    stroke
} bind def


% Draw a dot
% x y r dot -
/dot {
    0 360 arc fill
} bind def

% Draw a dot-dashed line, a bunch of lined segments,
% if the array element only has length two, draw a dot.
% [ [x2 y2 x1 y1] [x4 y4 x3 y3] [x5 y5] ... ] width dashed -
/width 0 def
/dashed {
    dup 2.0 div /width exch def
    setlinewidth
    % pop off each line segment and draw it as a dot or as a line
    {
	aload length 2 gt
	{ moveto lineto stroke}
	{ width dot } ifelse
    } forall
} bind def

% Draw an arc segment
% x y r ang1 ang2 width darc -
/darc {
    setlinewidth
    arc stroke
} bind def

% Draw a series of arc segment bits, if the array element only has a single
% element in it, draw a dot.
% [ [sa1 ea1] [sa2 ea2] ... ] x y r width dashedarc -
/x 0 def
/y 0 def
/dashedarc {
    dup /width exch def
    setlinewidth
    /r exch def  
    /y exch def
    /x exch def
    { aload length 1 gt
	{
	    % this element had two angles in it
	    % extract start and stop angles
	    x y r   % drop x y and r onto stack
		    % at this point we have: sa ea x y r
		    % we need                      x y r sa ea
		    % so..
	    5 -2 roll
	    % and add it to the current path, and draw it
	    arc stroke
	} {
	    % this element only had one angle in it, place a
	    % filled dot at the appropriate place
	    % compute center point of the arc using the angle
	    % that is on the top of the stack
	    dup   		% angle angle
	    cos r mul x add 	% angle x
	    exch		% x angle
	    sin r mul y add	% x y
	    width		% x y width/2
	    dot			% draw the dot
	} ifelse
    } forall

    % Now draw it
    stroke
} bind def

% Draw a box
% width height x y linethickness box -
/box {
    setlinewidth
    moveto
    exch dup 0 rlineto	 % w h, h w w 0      -- Draw bottom line
    exch 0 exch rlineto	 % h w, w h 0, w 0 h -- Draw right line 
    neg 0 rlineto	 % w, -w 0           -- Draw Top line
    closepath		 % finish and draw it
    stroke
} bind def			     

% Draw a filled box
% width height x y fbox -
/fbox {
    moveto
    exch dup 0 rlineto	
    exch 0 exch rlineto	
    neg 0 rlineto		
    closepath			
    fill			
} bind def

% Font reincoding utilities

% ISOLatin1Encoding, extended with remaining uncoded glyphs
/ISOLatin1Extended [
    /.notdef /Lslash /lslash /OE /oe /Scaron /scaron /Zcaron /zcaron
    /Ydieresis /trademark /bullet /dagger /daggerdbl /ellipsis /emdash
    /endash /fi /fl /florin /fraction /guilsinglleft /guilsinglright
    /perthousand /quotedblbase /quotedblleft /quotedblright
    /quotesinglbase /quotesingle /.notdef /.notdef /.notdef /space
    /exclam /quotedbl /numbersign /dollar /percent /ampersand
    /quoteright /parenleft /parenright /asterisk /plus /comma /minus
    /period /slash /zero /one /two /three /four /five /six /seven /eight
    /nine /colon /semicolon /less /equal /greater /question /at /A /B /C
    /D /E /F /G /H /I /J /K /L /M /N /O /P /Q /R /S /T /U /V /W /X /Y /Z
    /bracketleft /backslash /bracketright /asciicircum /underscore
    /quoteleft /a /b /c /d /e /f /g /h /i /j /k /l /m /n /o /p /q /r /s
    /t /u /v /w /x /y /z /braceleft /bar /braceright /asciitilde
    /.notdef /.notdef /.notdef /.notdef /.notdef /.notdef /.notdef
    /.notdef /.notdef /.notdef /.notdef /.notdef /.notdef /.notdef
    /.notdef /.notdef /.notdef /dotlessi /grave /acute /circumflex
    /tilde /macron /breve /dotaccent /dieresis /.notdef /ring /cedilla
    /.notdef /hungarumlaut /ogonek /caron /space /exclamdown /cent
    /sterling /currency /yen /brokenbar /section /dieresis /copyright
    /ordfeminine /guillemotleft /logicalnot /hyphen /registered /macron
    /degree /plusminus /twosuperior /threesuperior /acute /mu /paragraph
    /periodcentered /cedilla /onesuperior /ordmasculine /guillemotright
    /onequarter /onehalf /threequarters /questiondown /Agrave /Aacute
    /Acircumflex /Atilde /Adieresis /Aring /AE /Ccedilla /Egrave /Eacute
    /Ecircumflex /Edieresis /Igrave /Iacute /Icircumflex /Idieresis /Eth
    /Ntilde /Ograve /Oacute /Ocircumflex /Otilde /Odieresis /multiply
    /Oslash /Ugrave /Uacute /Ucircumflex /Udieresis /Yacute /Thorn
    /germandbls /agrave /aacute /acircumflex /atilde /adieresis /aring
    /ae /ccedilla /egrave /eacute /ecircumflex /edieresis /igrave
    /iacute /icircumflex /idieresis /eth /ntilde /ograve /oacute
    /ocircumflex /otilde /odieresis /divide /oslash /ugrave /uacute
    /ucircumflex /udieresis /yacute /thorn /ydieresis
] def

% `new-font-name' `encoding-vector' `old-font-name' RE -
/RE {
    findfont
    dup maxlength dict begin {
        1 index /FID ne { def } { pop pop } ifelse
    } forall
    /Encoding exch def
    dup /FontName exch def
    currentdict end definefont pop
} bind def

% Text handling functions, select the font and scale it, then we need
% only to apply the appropriate transformations to get the text
% justified into the right spots.  The bad thing here is that we don't
% do any kerning, so the output may look a bit strange.

% compute the height of one character and return lly and ury
% (char) charheight lly ury
/charheight {
    gsave			% push graphics state
	newpath			% clear current path
	0 0 moveto		% Set current point
	false charpath		% get path
	flattenpath		% flatten path
	pathbbox		% stack = llx lly urx ury
	exch pop		% stack = llx lly ury
	3 -1 roll pop		% stack = lly ury
    grestore			% pop graphics state
} bind def

% compute the height of a string, one character at a time
% (string) stringheight lly ury
/lly 0.0 def
/ury 0.0 def

/stringheight {
    /lly 0.0 def			% initial value of heightmin
    /ury 0.0 def			% initial value of heightmax
    {				% work through string
	( ) dup 0 4 -1 roll put	% create one character string
	charheight		% measure it's height
	dup ury gt {		% if ury gt heightmax
	    /ury exch def	% update with new value
	} {
	    pop			% else discard ury
	} ifelse
	dup lly lt {		% if lly lt heightmin
	    /lly exch def	% update with new value
	} {
	    pop			% else discard lly
	} ifelse
    } forall
    lly ury			% Return the results
} bind def

% calculate the string width taking into account the escapes.
/mystrx 0.0 def
/mystry 0.0 def
/mystresc false def

/mystringwidth {
    /mystrx 0.0 def
    /mystry 0.0 def
    /mystresc false def
    {				% work through string
	% did we process the escape character last?
	mystresc {
	    % last character was escape
	    % handle the escape
	    % is it an _ = 95?
	    dup 95 eq {
		pop  % we don't need the character anymore
		% toggle drawing overbars
		0.0 0.0 % make it like it never happened...
	    } {
		% otherwise measure the character 
		(\\ ) dup 1 4 -1 roll put % count a \ and the character
		stringwidth
	    } ifelse
	    % and reset the flag
	    /mystresc false def
	} {
	    % last character was not escape
	    % is this escape
	    dup 92 eq {
		% yes, escape character, set flag
		/mystresc true def
		pop % drop character
		0.0 0.0 % make like this character has no width and height
	    } {
		( ) dup 0 4 -1 roll put	% create one character string
		stringwidth		% measure it's height/width
	    } ifelse
	} ifelse
	% accumulate x and y movements
	mystry add /mystry exch def
	mystrx add /mystrx exch def
    } forall
    mystrx mystry % drop results on stack
} bind def

% Render a string with overbars
%
/escaped false def
/drawoverbar false def
/fontsize 0.0 def

%string1 string2 append -
/append {
    2 copy length exch length add % find new length
    string dup % string1 string2 string string
    4 2 roll % string string string1 string2
    2 index 0 3 index
    % string string string1 string2 string 0 string1
    putinterval % string string string1 string2
    exch length exch putinterval
} bind def

% If drawoverbar is set, draw a line of the same length as the given string
% string overbarshowline -
/overbarshowline {
    % print overbar if necessary
    stringwidth pop 0
    drawoverbar {
        rlineto
        gsave stroke grestore
    } {
        rmoveto
    } ifelse
} bind def

% Draws overbars for the given string, then shows the string itself
% string overbarshow
/overbarshow {
    /overbarshowacc () def
    /overbarshowtxt () def

    gsave
    fontsize 10.0 div setlinewidth
    0 fontsize rmoveto  % move to (0,overbarheight)

    {				% work through string
	escaped {
	    % the last character was the escape
	    % handle the escape
	    % is it an _ = 95?
	    dup 95 eq {
		pop  % we don't need the character anymore
                overbarshowacc overbarshowline
                % toggle drawing overbars
		/drawoverbar drawoverbar not def

                % Append the contents off the accumulator to the text
                % string we're eventually going to show
                /overbarshowtxt overbarshowtxt overbarshowacc append def

                % clear accumulator
                /overbarshowacc () def
	    } {
                % add to accumulator
                (\\ ) dup 1 4 -1 roll put
                overbarshowacc exch append
                /overbarshowacc exch def
	    } ifelse
	    % and reset the flag
	    /escaped false def
	} {
	    % check for escape character \ = 92
	    dup 92 eq {
		% yes, escape character, set flag
		/escaped true def
		pop % drop character
	    } {
                % add to accumulator
                ( ) dup 0 4 -1 roll put
                overbarshowacc exch append
                /overbarshowacc exch def
	    } ifelse
	} ifelse
    } forall
    % Catch any leftovers
    overbarshowacc overbarshowline
    overbarshowtxt overbarshowacc append

    grestore
    show
} bind def

% 
% hcenter rjustify vcenter vjustify spacing [(line1) (line2) ... ] rot x y size text -
/stringw 0.0 def
/stringh 0.0 def
/spacing 0.0 def
/strings [ ] def
/stringtxt ( ) def
/stringcount 0 def
/rot 0.0 def

/text {
    gsave	        % save state for later
    /drawoverbar false def      % start by not drawing overbars

    dup /fontsize exch def  % save font size for corrections later
    % do font selection 
    /gEDAFont findfont
    exch scalefont
    setfont

    % set up coordinates
    translate           % move origin to given point
    rotate		% rotate so that text is drawn
    0 0 moveto
    dup length /stringcount exch def			% Get number of strings
    /strings exch def     				% save strings
    /spacing exch def
    % do we have more than 1 string to render?
    stringcount 1 eq {
	/stringtxt strings aload pop def		% get the string 
	/stringw stringtxt mystringwidth pop neg def	% get the -width
	/stringh stringtxt stringheight exch pop neg def% get the -height

	% First do vertical calculations
	% hcenter rjustify vcenter vjustify 
	% vertical justification
	{ 0 stringh rmoveto } if 
	% vertical center
	{ 0 stringh 0.3571425 mul rmoveto } if  % not 0.5, so that
						% it looks nicer
	% Then do horizontal calculations
	% right justify
	{ stringw 0 rmoveto } if
	% center
	{ stringw 2.0 div 0 rmoveto } if
	% Draw the text
	stringtxt overbarshow
    } {
	% More than one line, compute bounding box for the text

	% vertical height, don't use the actual hieght of the characters
	% assume that the user wants to make the baselines line up with two
	% text boxes placed side by side
	/stringh stringcount spacing mul neg def
	% Now figure out horizontal size, this amounts to keeping track
	% of the longest string
	/stringw 0.0 def
	strings {
	    mystringwidth pop
	    dup stringw gt {
		/stringw exch def
	    } {
		pop
	    } ifelse
	} forall
	/stringw stringw neg def 	% get the -width
	
	% First do vertical calculations
	% hcenter rjustify vcenter vjustify 
	% vertical justification
	{ 0 stringh fontsize add rmoveto } if 
	% vertical center
	{ 0 stringh 0.5 mul rmoveto } if 
	% Then do horizontal calculations
	% right justify
	{ stringw 0 rmoveto } if
	% center
	{ stringw 2.0 div 0 rmoveto } if
	% now move up to the first line and begin rendering
	0 stringcount 1 sub spacing mul rmoveto
	strings {
	    gsave		% Save starting point
	    overbarshow		% render the text
	    grestore
	    0 spacing neg rmoveto
	} forall
    } ifelse
    grestore 	% Restore old state
} bind def


%%EndProlog
%%Page: 1 1
/gEDAFont ISOLatin1Extended /Helvetica RE
2 setlinecap
0.072000 0.072000 scale
7880 500 translate 90 rotate
0.475737 0.475737 scale
-33900 -35400 translate
gsave
41100 43400 46100 43400 10 line
46100 43400 46100 48400 10 line
46100 48400 41100 48400 10 line
41100 48400 41100 43400 10 line
40800 47900 41100 47900 10 line
gsave
false false false false 202.222224 [(PC6 \(PCINT14/RESET\)) ] 0 41155 47895 180.555557 text
grestore
gsave
false true false false 202.222224 [(1) ] 0 41005 47945 180.555557 text
grestore
40800 47600 41100 47600 10 line
gsave
false false false false 202.222224 [(PD0 \(PCINT16/RXD\)) ] 0 41155 47595 180.555557 text
grestore
gsave
false true false false 202.222224 [(2) ] 0 41005 47645 180.555557 text
grestore
40800 47300 41100 47300 10 line
gsave
false false false false 202.222224 [(PD1 \(PCINT17/TXD\)) ] 0 41155 47295 180.555557 text
grestore
gsave
false true false false 202.222224 [(3) ] 0 41005 47345 180.555557 text
grestore
40800 47000 41100 47000 10 line
gsave
false false false false 202.222224 [(PD2 \(PCINT18/INT0\)) ] 0 41155 46995 180.555557 text
grestore
gsave
false true false false 202.222224 [(4) ] 0 41005 47045 180.555557 text
grestore
40800 46700 41100 46700 10 line
gsave
false false false false 202.222224 [(PD3 \(PCINT19/OC2B/INT1\)) ] 0 41155 46695 180.555557 text
grestore
gsave
false true false false 202.222224 [(5) ] 0 41005 46745 180.555557 text
grestore
40800 46400 41100 46400 10 line
gsave
false false false false 202.222224 [(PD4 \(PCINT20/XCK/T0\)) ] 0 41155 46395 180.555557 text
grestore
gsave
false true false false 202.222224 [(6) ] 0 41005 46445 180.555557 text
grestore
40800 46100 41100 46100 10 line
gsave
false false false false 202.222224 [(VCC) ] 0 41155 46095 180.555557 text
grestore
gsave
false true false false 202.222224 [(7) ] 0 41005 46145 180.555557 text
grestore
40800 45800 41100 45800 10 line
gsave
false false false false 202.222224 [(GND) ] 0 41155 45795 180.555557 text
grestore
gsave
false true false false 202.222224 [(8) ] 0 41005 45845 180.555557 text
grestore
40800 45500 41100 45500 10 line
gsave
false false false false 202.222224 [(PB6 \(PCINT6/XTAL1/TOSC1\)) ] 0 41155 45495 180.555557 text
grestore
gsave
false true false false 202.222224 [(9) ] 0 41005 45545 180.555557 text
grestore
40800 45200 41100 45200 10 line
gsave
false false false false 202.222224 [(PB7 \(PCINT7/XTAL2/TOSC2\)) ] 0 41155 45195 180.555557 text
grestore
gsave
false true false false 202.222224 [(10) ] 0 41005 45245 180.555557 text
grestore
40800 44900 41100 44900 10 line
gsave
false false false false 202.222224 [(PD5 \(PCINT21/OC0B/T1\)) ] 0 41155 44895 180.555557 text
grestore
gsave
false true false false 202.222224 [(11) ] 0 41005 44945 180.555557 text
grestore
40800 44600 41100 44600 10 line
gsave
false false false false 202.222224 [(PD6 \(PCINT22/OC0A/AIN0\)) ] 0 41155 44595 180.555557 text
grestore
gsave
false true false false 202.222224 [(12) ] 0 41005 44645 180.555557 text
grestore
40800 44000 41100 44000 10 line
gsave
false false false false 202.222224 [(PB0 \(PCINT0/CLKO/ICP1\)) ] 0 41155 43995 180.555557 text
grestore
gsave
false true false false 202.222224 [(14) ] 0 41005 44045 180.555557 text
grestore
40800 44300 41100 44300 10 line
gsave
false false false false 202.222224 [(PD7 \(PCINT23/AIN1\)) ] 0 41155 44295 180.555557 text
grestore
gsave
false true false false 202.222224 [(13) ] 0 41005 44345 180.555557 text
grestore
46400 47900 46100 47900 10 line
gsave
false true false false 202.222224 [(PC5 \(ADC5/SCL/PCINT13\)) ] 0 46045 47895 180.555557 text
grestore
gsave
false false false false 202.222224 [(28) ] 0 46195 47945 180.555557 text
grestore
46400 47300 46100 47300 10 line
gsave
false true false false 202.222224 [(PC3 \(ADC3/PCINT11\)) ] 0 46000 47300 180.555557 text
grestore
gsave
false false false false 202.222224 [(26) ] 0 46195 47345 180.555557 text
grestore
46400 47600 46100 47600 10 line
gsave
false true false false 202.222224 [(PC4 \(ADC4/SDA/PCINT12\)) ] 0 46045 47595 180.555557 text
grestore
gsave
false false false false 202.222224 [(27) ] 0 46195 47645 180.555557 text
grestore
46400 47000 46100 47000 10 line
gsave
false true false false 202.222224 [(PC2 \(ADC2/PCINT10\)) ] 0 46045 46995 180.555557 text
grestore
gsave
false false false false 202.222224 [(25) ] 0 46195 47045 180.555557 text
grestore
46400 46700 46100 46700 10 line
gsave
false true false false 202.222224 [(PC1 \(ADC1/PCINT9\)) ] 0 46045 46695 180.555557 text
grestore
gsave
false false false false 202.222224 [(24) ] 0 46195 46745 180.555557 text
grestore
46400 46400 46100 46400 10 line
gsave
false true false false 202.222224 [(PC0 \(ADC0/PCINT8\)) ] 0 46045 46395 180.555557 text
grestore
gsave
false false false false 202.222224 [(23) ] 0 46195 46445 180.555557 text
grestore
46400 46100 46100 46100 10 line
gsave
false true false false 202.222224 [(GND) ] 0 46045 46095 180.555557 text
grestore
gsave
false false false false 202.222224 [(22) ] 0 46195 46145 180.555557 text
grestore
46400 45800 46100 45800 10 line
gsave
false true false false 202.222224 [(AREF) ] 0 46045 45795 180.555557 text
grestore
gsave
false false false false 202.222224 [(21) ] 0 46195 45845 180.555557 text
grestore
46400 45500 46100 45500 10 line
gsave
false true false false 202.222224 [(AVCC) ] 0 46045 45495 180.555557 text
grestore
gsave
false false false false 202.222224 [(20) ] 0 46195 45545 180.555557 text
grestore
46400 45200 46100 45200 10 line
gsave
false true false false 202.222224 [(PB5 \(SCK/PCINT5\)) ] 0 46045 45195 180.555557 text
grestore
gsave
false false false false 202.222224 [(19) ] 0 46195 45245 180.555557 text
grestore
46400 44900 46100 44900 10 line
gsave
false true false false 202.222224 [(PB4 \(MISO/PCINT4\)) ] 0 46045 44895 180.555557 text
grestore
gsave
false false false false 202.222224 [(18) ] 0 46195 44945 180.555557 text
grestore
46400 44600 46100 44600 10 line
gsave
false true false false 202.222224 [(PB3 \(MOSI/OC2A/PCINT3\)) ] 0 46045 44595 180.555557 text
grestore
gsave
false false false false 202.222224 [(17) ] 0 46195 44645 180.555557 text
grestore
46400 44300 46100 44300 10 line
gsave
false true false false 202.222224 [(PB2 \(SS/OC1B/PCINT2\)) ] 0 46045 44295 180.555557 text
grestore
gsave
false false false false 202.222224 [(16) ] 0 46195 44345 180.555557 text
grestore
46400 44000 46100 44000 10 line
gsave
false true false false 202.222224 [(PB1 \(OC1A/PCINT1\)) ] 0 46045 43995 180.555557 text
grestore
gsave
false false false false 202.222224 [(15) ] 0 46195 44045 180.555557 text
grestore
43600 48400 200 180 360 10 darc
gsave
false false false false 202.222224 [(ATmega328p) ] 0 41100 48500 180.555557 text
grestore
60 60 40770 46970 fbox
60 60 40770 46670 fbox
60 60 40770 46370 fbox
60 60 40770 44870 fbox
60 60 40770 44570 fbox
60 60 40770 44270 fbox
60 60 46370 47570 fbox
grestore
gsave
false false false false 202.222224 [(U?) ] 0 45800 48500 180.555557 text
grestore
gsave
51500 49400 51500 49250 10 line
51500 48500 51500 48650 10 line
51400 48650 51600 48650 10 line
51600 48650 51600 49250 10 line
51600 49250 51400 49250 10 line
51400 49250 51400 48650 10 line
grestore
gsave
false false false false 202.222224 [(R?) ] 90 51300 48700 180.555557 text
grestore
gsave
false false false false 202.222224 [(10K) ] 0 51600 48500 180.555557 text
grestore
gsave
48600 42600 48400 42600 10 line
47700 42600 47900 42600 10 line
48200 42400 48200 42800 10 line
48100 42400 48100 42800 10 line
47900 42600 48100 42600 10 line
48200 42600 48400 42600 10 line
grestore
gsave
false true false true 202.222224 [(C?) ] 0 48400 42300 180.555557 text
grestore
gsave
false false false false 202.222224 [(100nF) ] 0 48600 42800 180.555557 text
grestore
gsave
47100 42600 46950 42600 10 line
46200 42600 46350 42600 10 line
46437 42600 75 0 180 10 darc
46579 42600 75 0 180 10 darc
46721 42600 75 0 180 10 darc
46863 42600 75 0 180 10 darc
46938 42600 46950 42600 10 line
46350 42600 46362 42600 10 line
46508 42600 4 180 360 10 darc
46650 42600 4 180 360 10 darc
46792 42600 4 180 360 10 darc
grestore
gsave
false false false false 202.222224 [(L?) ] 0 46400 42900 180.555557 text
grestore
gsave
false false false false 202.222224 [(10uH) ] 0 46300 42400 180.555557 text
grestore
gsave
54700 44500 54500 44500 10 line
54700 44400 54700 44600 10 line
54750 44455 54750 44545 10 line
54790 44480 54790 44520 10 line
newpath
54500 44500
25
0 360 arc
fill
grestore
gsave
54500 49400 54700 49400 10 line
54700 49550 54700 49250 10 line
gsave
false false false false 161.777776 [(Vcc) ] 270 54750 49525 144.444443 text
grestore
newpath
54500 49400
25
0 360 arc
fill
grestore
gsave
51500 46000 51500 46150 10 line
gsave
false false false false 161.777776 [(1) ] 90 51450 46050 144.444443 text
grestore
51500 46850 51500 47000 10 line
gsave
false false false false 161.777776 [(2) ] 90 51450 46900 144.444443 text
grestore
51500 46150 51500 46325 10 line
51500 46850 51500 46675 10 line
51415 46300 51415 46700 10 line
51500 46339 14 0 360 10 darc
51500 46662 14 0 360 10 darc
51245 46470 51245 46520 10 line
51295 46470 51295 46520 10 line
51295 46470 51345 46495 10 line
51295 46520 51345 46495 10 line
51295 46495 51245 46495 10 line
51345 46495 51414 46495 10 line
grestore
gsave
false false false false 202.222224 [(S?) ] 90 51100 46400 180.555557 text
grestore
46400 46400 50500 46400 10 line
gsave
52500 46000 52500 46150 10 line
gsave
false false false false 161.777776 [(1) ] 90 52450 46050 144.444443 text
grestore
52500 46850 52500 47000 10 line
gsave
false false false false 161.777776 [(2) ] 90 52450 46900 144.444443 text
grestore
52500 46150 52500 46325 10 line
52500 46850 52500 46675 10 line
52415 46300 52415 46700 10 line
52500 46339 14 0 360 10 darc
52500 46662 14 0 360 10 darc
52245 46470 52245 46520 10 line
52295 46470 52295 46520 10 line
52295 46470 52345 46495 10 line
52295 46520 52345 46495 10 line
52295 46495 52245 46495 10 line
52345 46495 52414 46495 10 line
grestore
gsave
false false false false 202.222224 [(S?) ] 90 52100 46400 180.555557 text
grestore
gsave
53500 46000 53500 46150 10 line
gsave
false false false false 161.777776 [(1) ] 90 53450 46050 144.444443 text
grestore
53500 46850 53500 47000 10 line
gsave
false false false false 161.777776 [(2) ] 90 53450 46900 144.444443 text
grestore
53500 46150 53500 46325 10 line
53500 46850 53500 46675 10 line
53415 46300 53415 46700 10 line
53500 46339 14 0 360 10 darc
53500 46662 14 0 360 10 darc
53245 46470 53245 46520 10 line
53295 46470 53295 46520 10 line
53295 46470 53345 46495 10 line
53295 46520 53345 46495 10 line
53295 46495 53245 46495 10 line
53345 46495 53414 46495 10 line
grestore
gsave
false false false false 202.222224 [(S?) ] 90 53100 46400 180.555557 text
grestore
gsave
54500 46000 54500 46150 10 line
gsave
false false false false 161.777776 [(1) ] 90 54450 46050 144.444443 text
grestore
54500 46850 54500 47000 10 line
gsave
false false false false 161.777776 [(2) ] 90 54450 46900 144.444443 text
grestore
54500 46150 54500 46325 10 line
54500 46850 54500 46675 10 line
54415 46300 54415 46700 10 line
54500 46339 14 0 360 10 darc
54500 46662 14 0 360 10 darc
54245 46470 54245 46520 10 line
54295 46470 54295 46520 10 line
54295 46470 54345 46495 10 line
54295 46520 54345 46495 10 line
54295 46495 54245 46495 10 line
54345 46495 54414 46495 10 line
grestore
gsave
false false false false 202.222224 [(S?) ] 90 54100 46400 180.555557 text
grestore
51500 46000 51500 44500 10 line
52500 46000 52500 44500 10 line
53500 46000 53500 44500 10 line
54500 46000 54500 44500 10 line
54500 49400 51500 49400 10 line
51500 48500 51500 47000 10 line
52500 48500 52500 47000 10 line
53500 48500 53500 47000 10 line
54500 48500 54500 47000 10 line
50500 46400 50500 47200 10 line
46400 46700 50200 46700 10 line
50200 46700 50200 47500 10 line
46400 47000 49900 47000 10 line
49900 47000 49900 47800 10 line
46400 47300 49600 47300 10 line
49600 47300 49600 48100 10 line
50500 47200 51500 47200 10 line
50200 47500 52500 47500 10 line
49900 47800 53500 47800 10 line
49600 48100 54500 48100 10 line
gsave
47900 50300 47750 50300 10 line
47000 50300 47150 50300 10 line
47150 50200 47750 50200 10 line
47750 50200 47750 50400 10 line
47750 50400 47150 50400 10 line
47150 50400 47150 50200 10 line
grestore
gsave
false false false false 202.222224 [(R?) ] 0 47200 50500 180.555557 text
grestore
47200 50000 47700 50500 10 line
47200 50000 47400 50000 10 line
47200 50000 47200 50200 10 line
gsave
46500 50300 46300 50300 10 line
46300 50150 46300 50450 10 line
gsave
false false false false 161.777776 [(Vcc) ] 90 46250 50175 144.444443 text
grestore
grestore
gsave
49500 50300 49300 50300 10 line
49500 50200 49500 50400 10 line
49550 50255 49550 50345 10 line
49590 50280 49590 50320 10 line
grestore
46500 50300 47000 50300 10 line
gsave
49300 50300 49150 50300 10 line
48400 50300 48550 50300 10 line
48550 50200 49150 50200 10 line
49150 50200 49150 50400 10 line
49150 50400 48550 50400 10 line
48550 50400 48550 50200 10 line
grestore
gsave
false false false false 202.222224 [(R?) ] 0 48600 50500 180.555557 text
grestore
gsave
false false false false 202.222224 [(33K) ] 0 49000 50500 180.555557 text
grestore
48400 50300 47900 50300 10 line
48200 50300 48200 47900 10 line
48200 47900 46400 47900 10 line
38400 46100 40800 46100 10 line
40000 46100 40000 42600 10 line
40000 42600 46200 42600 10 line
46400 45500 47500 45500 10 line
47500 45500 47500 42600 10 line
47100 42600 47700 42600 10 line
gsave
48800 42600 48600 42600 10 line
48800 42500 48800 42700 10 line
48850 42555 48850 42645 10 line
48890 42580 48890 42620 10 line
grestore
gsave
48500 46100 48500 45900 10 line
48500 45200 48500 45400 10 line
48700 45700 48300 45700 10 line
48700 45600 48300 45600 10 line
48500 45400 48500 45600 10 line
48500 45700 48500 45900 10 line
grestore
gsave
false false false false 202.222224 [(C?) ] 270 48800 45900 180.555557 text
grestore
gsave
false false false false 202.222224 [(100nF) ] 0 48000 45800 180.555557 text
grestore
48500 45200 48000 45200 10 line
46400 45800 48000 45800 10 line
48000 45800 48000 45200 10 line
46400 46100 48500 46100 10 line
gsave
36700 48200 37000 48200 10 line
gsave
false false false false 161.777776 [(2) ] 0 35550 48150 144.444443 text
grestore
36700 47600 37000 47600 10 line
gsave
false false false false 161.777776 [(4) ] 0 35550 47550 144.444443 text
grestore
36700 47000 37000 47000 10 line
gsave
false false false false 161.777776 [(6) ] 0 35550 46950 144.444443 text
grestore
36700 48500 37000 48500 10 line
gsave
false false false false 161.777776 [(1) ] 0 35550 48450 144.444443 text
grestore
36700 47900 37000 47900 10 line
gsave
false false false false 161.777776 [(3) ] 0 35550 47850 144.444443 text
grestore
36700 47300 37000 47300 10 line
gsave
false false false false 161.777776 [(5) ] 0 35550 47250 144.444443 text
grestore
36700 48500 35800 48500 10 line
36700 48200 35800 48200 10 line
36700 47900 35800 47900 10 line
36700 47600 35800 47600 10 line
36700 47300 35800 47300 10 line
36700 47000 35800 47000 10 line
35300 46800 35800 46800 10 line
35800 46800 35800 48700 10 line
35800 48700 35300 48700 10 line
35300 48700 35300 46800 10 line
60 60 36970 48170 fbox
60 60 36970 46970 fbox
grestore
gsave
false false false false 202.222224 [(FT232RL) ] 0 35200 48800 180.555557 text
grestore
gsave
false false false false 202.222224 [(DTR) ] 0 36200 47000 180.555557 text
grestore
gsave
false false false false 202.222224 [(RX) ] 0 36200 47300 180.555557 text
grestore
gsave
false false false false 202.222224 [(TX) ] 0 36200 47600 180.555557 text
grestore
gsave
false false false false 202.222224 [(VCC) ] 0 36200 47900 180.555557 text
grestore
gsave
false false false false 202.222224 [(CTS) ] 0 36200 48200 180.555557 text
grestore
gsave
false false false false 202.222224 [(GND) ] 0 36200 48500 180.555557 text
grestore
37000 47900 38400 47900 10 line
38400 47900 38400 46100 10 line
37000 48500 38100 48500 10 line
38100 48500 38100 45800 10 line
38100 45800 40800 45800 10 line
37000 47600 40800 47600 10 line
37000 47300 40800 47300 10 line
gsave
37500 44800 37500 45000 10 line
37500 45300 37500 45500 10 line
37400 45050 37600 45050 10 line
37600 45050 37600 45250 10 line
37600 45250 37400 45250 10 line
37400 45250 37400 45050 10 line
37360 45000 37640 45000 10 line
37360 45300 37640 45300 10 line
newpath
37500 44800
25
0 360 arc
fill
newpath
37500 44800
25
0 360 arc
fill
newpath
37500 45500
25
0 360 arc
fill
newpath
37500 45500
25
0 360 arc
fill
grestore
gsave
false false false false 202.222224 [(U?) ] 90 37300 45000 180.555557 text
grestore
gsave
false false false false 202.222224 [(8Mhz) ] 0 37600 44800 180.555557 text
grestore
36600 45500 40800 45500 10 line
40800 45200 38100 45200 10 line
36600 44800 38100 44800 10 line
38100 45200 38100 44800 10 line
gsave
35700 45500 35900 45500 10 line
36600 45500 36400 45500 10 line
36100 45700 36100 45300 10 line
36200 45700 36200 45300 10 line
36400 45500 36200 45500 10 line
36100 45500 35900 45500 10 line
grestore
gsave
false false false false 202.222224 [(C?) ] 0 35800 45600 180.555557 text
grestore
gsave
false false false false 202.222224 [(18pF) ] 0 35700 45300 180.555557 text
grestore
gsave
35700 44800 35900 44800 10 line
36600 44800 36400 44800 10 line
36100 45000 36100 44600 10 line
36200 45000 36200 44600 10 line
36400 44800 36200 44800 10 line
36100 44800 35900 44800 10 line
grestore
gsave
false false false false 202.222224 [(C?) ] 0 35800 44900 180.555557 text
grestore
gsave
false false false false 202.222224 [(18pF) ] 0 35700 44600 180.555557 text
grestore
gsave
34000 44600 34000 44800 10 line
33900 44600 34100 44600 10 line
33955 44550 34045 44550 10 line
33980 44510 34020 44510 10 line
newpath
34000 44800
25
0 360 arc
fill
grestore
35700 45500 34000 45500 10 line
34000 45500 34000 44800 10 line
34000 44800 35700 44800 10 line
gsave
52500 49400 52500 49250 10 line
52500 48500 52500 48650 10 line
52400 48650 52600 48650 10 line
52600 48650 52600 49250 10 line
52600 49250 52400 49250 10 line
52400 49250 52400 48650 10 line
newpath
52500 49400
25
0 360 arc
fill
newpath
52500 49400
25
0 360 arc
fill
grestore
gsave
false false false false 202.222224 [(R?) ] 90 52300 48700 180.555557 text
grestore
gsave
false false false false 202.222224 [(10K) ] 0 52600 48500 180.555557 text
grestore
gsave
53500 49400 53500 49250 10 line
53500 48500 53500 48650 10 line
53400 48650 53600 48650 10 line
53600 48650 53600 49250 10 line
53600 49250 53400 49250 10 line
53400 49250 53400 48650 10 line
newpath
53500 49400
25
0 360 arc
fill
newpath
53500 49400
25
0 360 arc
fill
grestore
gsave
false false false false 202.222224 [(R?) ] 90 53300 48700 180.555557 text
grestore
gsave
false false false false 202.222224 [(10K) ] 0 53600 48500 180.555557 text
grestore
gsave
54500 49400 54500 49250 10 line
54500 48500 54500 48650 10 line
54400 48650 54600 48650 10 line
54600 48650 54600 49250 10 line
54600 49250 54400 49250 10 line
54400 49250 54400 48650 10 line
newpath
54500 49400
25
0 360 arc
fill
grestore
gsave
false false false false 202.222224 [(R?) ] 90 54300 48700 180.555557 text
grestore
gsave
false false false false 202.222224 [(10K) ] 0 54600 48500 180.555557 text
grestore
51500 44500 54500 44500 10 line
gsave
54600 38400 54400 38400 10 line
54600 38300 54600 38500 10 line
54650 38355 54650 38445 10 line
54690 38380 54690 38420 10 line
newpath
54400 38400
25
0 360 arc
fill
grestore
gsave
54400 43300 54600 43300 10 line
54600 43450 54600 43150 10 line
gsave
false false false false 161.777776 [(Vcc) ] 270 54650 43425 144.444443 text
grestore
newpath
54400 43300
25
0 360 arc
fill
grestore
gsave
52400 39900 52400 40050 10 line
gsave
false false false false 161.777776 [(1) ] 90 52350 39950 144.444443 text
grestore
52400 40750 52400 40900 10 line
gsave
false false false false 161.777776 [(2) ] 90 52350 40800 144.444443 text
grestore
52400 40050 52400 40225 10 line
52400 40750 52400 40575 10 line
52315 40200 52315 40600 10 line
52400 40239 14 0 360 10 darc
52400 40562 14 0 360 10 darc
52145 40370 52145 40420 10 line
52195 40370 52195 40420 10 line
52195 40370 52245 40395 10 line
52195 40420 52245 40395 10 line
52195 40395 52145 40395 10 line
52245 40395 52314 40395 10 line
grestore
gsave
false false false false 202.222224 [(S?) ] 90 52000 40300 180.555557 text
grestore
gsave
53400 39900 53400 40050 10 line
gsave
false false false false 161.777776 [(1) ] 90 53350 39950 144.444443 text
grestore
53400 40750 53400 40900 10 line
gsave
false false false false 161.777776 [(2) ] 90 53350 40800 144.444443 text
grestore
53400 40050 53400 40225 10 line
53400 40750 53400 40575 10 line
53315 40200 53315 40600 10 line
53400 40239 14 0 360 10 darc
53400 40562 14 0 360 10 darc
53145 40370 53145 40420 10 line
53195 40370 53195 40420 10 line
53195 40370 53245 40395 10 line
53195 40420 53245 40395 10 line
53195 40395 53145 40395 10 line
53245 40395 53314 40395 10 line
grestore
gsave
false false false false 202.222224 [(S?) ] 90 53000 40300 180.555557 text
grestore
gsave
54400 39900 54400 40050 10 line
gsave
false false false false 161.777776 [(1) ] 90 54350 39950 144.444443 text
grestore
54400 40750 54400 40900 10 line
gsave
false false false false 161.777776 [(2) ] 90 54350 40800 144.444443 text
grestore
54400 40050 54400 40225 10 line
54400 40750 54400 40575 10 line
54315 40200 54315 40600 10 line
54400 40239 14 0 360 10 darc
54400 40562 14 0 360 10 darc
54145 40370 54145 40420 10 line
54195 40370 54195 40420 10 line
54195 40370 54245 40395 10 line
54195 40420 54245 40395 10 line
54195 40395 54145 40395 10 line
54245 40395 54314 40395 10 line
grestore
gsave
false false false false 202.222224 [(S?) ] 90 54000 40300 180.555557 text
grestore
52400 39900 52400 38400 10 line
53400 39900 53400 38400 10 line
54400 39900 54400 38400 10 line
54400 43300 52400 43300 10 line
52400 42400 52400 40900 10 line
53400 42400 53400 40900 10 line
54400 42400 54400 40900 10 line
gsave
52400 43300 52400 43150 10 line
52400 42400 52400 42550 10 line
52300 42550 52500 42550 10 line
52500 42550 52500 43150 10 line
52500 43150 52300 43150 10 line
52300 43150 52300 42550 10 line
grestore
gsave
false false false false 202.222224 [(R?) ] 90 52200 42600 180.555557 text
grestore
gsave
false false false false 202.222224 [(10K) ] 0 52500 42400 180.555557 text
grestore
gsave
53400 43300 53400 43150 10 line
53400 42400 53400 42550 10 line
53300 42550 53500 42550 10 line
53500 42550 53500 43150 10 line
53500 43150 53300 43150 10 line
53300 43150 53300 42550 10 line
newpath
53400 43300
25
0 360 arc
fill
newpath
53400 43300
25
0 360 arc
fill
grestore
gsave
false false false false 202.222224 [(R?) ] 90 53200 42600 180.555557 text
grestore
gsave
false false false false 202.222224 [(10K) ] 0 53500 42400 180.555557 text
grestore
gsave
54400 43300 54400 43150 10 line
54400 42400 54400 42550 10 line
54300 42550 54500 42550 10 line
54500 42550 54500 43150 10 line
54500 43150 54300 43150 10 line
54300 43150 54300 42550 10 line
newpath
54400 43300
25
0 360 arc
fill
grestore
gsave
false false false false 202.222224 [(R?) ] 90 54200 42600 180.555557 text
grestore
gsave
false false false false 202.222224 [(10K) ] 0 54500 42400 180.555557 text
grestore
52500 38400 54400 38400 10 line
40800 44000 40800 41900 10 line
40800 41900 52400 41900 10 line
53400 41400 49700 41400 10 line
49700 41400 49700 44000 10 line
49700 44000 46400 44000 10 line
46400 44300 49200 44300 10 line
49200 44300 49200 41000 10 line
49200 41000 54400 41000 10 line
gsave
52900 35900 52600 35900 10 line
gsave
false true false true 161.777776 [(2) ] 0 54050 35950 144.444443 text
grestore
52900 36500 52600 36500 10 line
gsave
false true false true 161.777776 [(4) ] 0 54050 36550 144.444443 text
grestore
52900 37100 52600 37100 10 line
gsave
false true false true 161.777776 [(6) ] 0 54050 37150 144.444443 text
grestore
52900 35600 52600 35600 10 line
gsave
false true false true 161.777776 [(1) ] 0 54050 35650 144.444443 text
grestore
52900 36200 52600 36200 10 line
gsave
false true false true 161.777776 [(3) ] 0 54050 36250 144.444443 text
grestore
52900 36800 52600 36800 10 line
gsave
false true false true 161.777776 [(5) ] 0 54050 36850 144.444443 text
grestore
52900 35600 53800 35600 10 line
52900 35900 53800 35900 10 line
52900 36200 53800 36200 10 line
52900 36500 53800 36500 10 line
52900 36800 53800 36800 10 line
52900 37100 53800 37100 10 line
53800 35400 54300 35400 10 line
54300 35400 54300 37300 10 line
54300 37300 53800 37300 10 line
53800 37300 53800 35400 10 line
60 60 52570 35870 fbox
grestore
gsave
false true false true 202.222224 [(SPI) ] 0 54000 37500 180.555557 text
grestore
gsave
false false false false 202.222224 [(MISO) ] 0 53000 35600 180.555557 text
grestore
gsave
false false false false 202.222224 [(VTG) ] 0 53000 35900 180.555557 text
grestore
gsave
false false false false 202.222224 [(SCK) ] 0 53000 36200 180.555557 text
grestore
gsave
false false false false 202.222224 [(MOSI) ] 0 53000 36500 180.555557 text
grestore
gsave
false false false false 202.222224 [(/RESET) ] 0 53000 36800 180.555557 text
grestore
gsave
false false false false 202.222224 [(GND) () ] 0 53000 36900 180.555557 text
grestore
52600 36500 50000 36500 10 line
50000 36500 50000 44600 10 line
50000 44600 46400 44600 10 line
52600 36200 50300 36200 10 line
50300 36200 50300 45100 10 line
46400 45200 47800 45200 10 line
47800 45200 47800 45100 10 line
47800 45100 50300 45100 10 line
46400 44900 50600 44900 10 line
50600 35600 50600 44900 10 line
50600 35600 52600 35600 10 line
40800 47900 38800 47900 10 line
38800 36800 38800 47900 10 line
38800 36800 52600 36800 10 line
39200 46100 39200 37100 10 line
39200 37100 52600 37100 10 line
60 60 40770 46970 fbox
60 60 40770 46670 fbox
60 60 40770 46370 fbox
60 60 40770 44870 fbox
60 60 40770 44570 fbox
60 60 40770 44270 fbox
60 60 46370 47570 fbox
newpath
54500 44500
25
0 360 arc
fill
newpath
54500 49400
25
0 360 arc
fill
newpath
52500 44500
25
0 360 arc
fill
newpath
52500 44500
25
0 360 arc
fill
newpath
53500 44500
25
0 360 arc
fill
newpath
53500 44500
25
0 360 arc
fill
newpath
54500 44500
25
0 360 arc
fill
newpath
54500 49400
25
0 360 arc
fill
newpath
52500 49400
25
0 360 arc
fill
newpath
53500 49400
25
0 360 arc
fill
newpath
51500 47200
25
0 360 arc
fill
newpath
52500 47500
25
0 360 arc
fill
newpath
53500 47800
25
0 360 arc
fill
newpath
54500 48100
25
0 360 arc
fill
newpath
51500 47200
25
0 360 arc
fill
newpath
51500 47200
25
0 360 arc
fill
newpath
52500 47500
25
0 360 arc
fill
newpath
52500 47500
25
0 360 arc
fill
newpath
53500 47800
25
0 360 arc
fill
newpath
53500 47800
25
0 360 arc
fill
newpath
54500 48100
25
0 360 arc
fill
newpath
54500 48100
25
0 360 arc
fill
newpath
48200 50300
25
0 360 arc
fill
newpath
48200 50300
25
0 360 arc
fill
newpath
48200 50300
25
0 360 arc
fill
newpath
40000 46100
25
0 360 arc
fill
newpath
39200 46100
25
0 360 arc
fill
newpath
40000 46100
25
0 360 arc
fill
newpath
40000 46100
25
0 360 arc
fill
newpath
47500 42600
25
0 360 arc
fill
newpath
47500 42600
25
0 360 arc
fill
newpath
47500 42600
25
0 360 arc
fill
60 60 36970 48170 fbox
60 60 36970 46970 fbox
newpath
37500 44800
25
0 360 arc
fill
newpath
37500 44800
25
0 360 arc
fill
newpath
37500 45500
25
0 360 arc
fill
newpath
37500 45500
25
0 360 arc
fill
newpath
37500 45500
25
0 360 arc
fill
newpath
37500 44800
25
0 360 arc
fill
newpath
34000 44800
25
0 360 arc
fill
newpath
34000 44800
25
0 360 arc
fill
newpath
34000 44800
25
0 360 arc
fill
newpath
52500 49400
25
0 360 arc
fill
newpath
52500 49400
25
0 360 arc
fill
newpath
53500 49400
25
0 360 arc
fill
newpath
53500 49400
25
0 360 arc
fill
newpath
54500 49400
25
0 360 arc
fill
newpath
54500 44500
25
0 360 arc
fill
newpath
52500 44500
25
0 360 arc
fill
newpath
53500 44500
25
0 360 arc
fill
newpath
54400 38400
25
0 360 arc
fill
newpath
54400 43300
25
0 360 arc
fill
60 60 52370 38370 fbox
newpath
53400 38400
25
0 360 arc
fill
newpath
53400 38400
25
0 360 arc
fill
newpath
54400 38400
25
0 360 arc
fill
newpath
54400 43300
25
0 360 arc
fill
newpath
53400 43300
25
0 360 arc
fill
newpath
52400 41900
25
0 360 arc
fill
newpath
53400 41400
25
0 360 arc
fill
newpath
54400 41000
25
0 360 arc
fill
newpath
53400 43300
25
0 360 arc
fill
newpath
53400 43300
25
0 360 arc
fill
newpath
54400 43300
25
0 360 arc
fill
gsave
[ -1.00 -0.00 0.00 -1.00 52500 38400 ] concat
newpath
-30 -30 moveto
-30 30 lineto
30 0 lineto
closepath
fill
grestore
newpath
54400 38400
25
0 360 arc
fill
newpath
53400 38400
25
0 360 arc
fill
newpath
52400 41900
25
0 360 arc
fill
newpath
52400 41900
25
0 360 arc
fill
newpath
53400 41400
25
0 360 arc
fill
newpath
53400 41400
25
0 360 arc
fill
newpath
54400 41000
25
0 360 arc
fill
newpath
54400 41000
25
0 360 arc
fill
60 60 52570 35870 fbox
newpath
39200 46100
25
0 360 arc
fill
newpath
39200 46100
25
0 360 arc
fill
showpage
%%End
